[
  {
    "clock_id": 403,
    "time_out": "2021-07-11T17:00:00.651Z",
    "employee_id": "123456",
    "time_in": "2021-07-11T09:00:00.162Z"
  },
  {
    "clock_id": 403,
    "time_out": "2021-07-12T17:00:00.651Z",
    "employee_id": "123456",
    "time_in": "2021-07-12T09:00:00.162Z"
  },
  {
    "clock_id": 403,
    "time_out": "2021-07-13T17:00:00.651Z",
    "employee_id": "123456",
    "time_in": "2021-07-13T09:00:00.162Z"
  },
  {
    "clock_id": 403,
    "time_out": "2021-07-14T17:00:00.651Z",
    "employee_id": "123456",
    "time_in": "2021-07-14T09:00:00.162Z"
  },
  {
    "clock_id": 403,
    "time_out": "2021-07-15T17:00:00.651Z",
    "employee_id": "123456",
    "time_in": "2021-07-15T09:00:00.162Z"
  }
]
